{
  "Ansi 5 Color" : {
    "Green Component" : 0.3490196168422699,
    "Red Component" : 0.7254902124404907,
    "Blue Component" : 0.8470588326454163
  },
  "Tags" : [

  ],
  "Ansi 12 Color" : {
    "Green Component" : 0.6117647290229797,
    "Red Component" : 0.3019607961177826,
    "Blue Component" : 0.9333333373069763
  },
  "Use Non-ASCII Font" : false,
  "Right Option Key Sends" : 0,
  "Bold Color" : {
    "Green Component" : 0.9085954414719558,
    "Red Component" : 0.8693822908051096,
    "Blue Component" : 1
  },
  "Ansi 8 Color" : {
    "Green Component" : 0.1294117718935013,
    "Red Component" : 0.1176470592617989,
    "Blue Component" : 0.1529411822557449
  },
  "Ansi 9 Color" : {
    "Green Component" : 0.3254902064800262,
    "Red Component" : 0.8509804010391235,
    "Blue Component" : 0.3764705955982208
  },
  "Ansi 7 Color" : {
    "Green Component" : 0.6352941176,
    "Red Component" : 0.6078431372999999,
    "Blue Component" : 0.6980392157
  },
  "Rows" : 30,
  "Default Bookmark" : "No",
  "Ansi 6 Color" : {
    "Green Component" : 0.658823549747467,
    "Red Component" : 0.2666666805744171,
    "Blue Component" : 0.7137255072593689
  },
  "Blend" : 0.5,
  "Cursor Guide Color" : {
    "Red Component" : 0.65,
    "Color Space" : "Calibrated",
    "Blue Component" : 1,
    "Alpha Component" : 0.25,
    "Green Component" : 0.91
  },
  "Non-ASCII Anti Aliased" : true,
  "Use Bright Bold" : true,
  "Ansi 10 Color" : {
    "Green Component" : 0.7333333492279053,
    "Red Component" : 0.5254902243614197,
    "Blue Component" : 0.3843137323856354
  },
  "Ambiguous Double Width" : false,
  "Jobs to Ignore" : [
    "rlogin",
    "ssh",
    "slogin",
    "telnet"
  ],
  "Ansi 15 Color" : {
    "Green Component" : 0.6352941393852234,
    "Red Component" : 0.6078431606292725,
    "Blue Component" : 0.6980392336845398
  },
  "Foreground Color" : {
    "Green Component" : 0.6352941393852234,
    "Red Component" : 0.6078431606292725,
    "Blue Component" : 0.6980392336845398
  },
  "Working Directory" : "\/Users\/brwnrclse",
  "Blinking Cursor" : true,
  "Disable Window Resizing" : true,
  "Sync Title" : false,
  "Prompt Before Closing 2" : false,
  "BM Growl" : true,
  "Command" : "",
  "Description" : "Default",
  "Space" : -1,
  "Mouse Reporting" : true,
  "Screen" : -1,
  "Selection Color" : {
    "Green Component" : 0.2039215713739395,
    "Red Component" : 0.1843137294054031,
    "Blue Component" : 0.250980406999588
  },
  "Columns" : 80,
  "Idle Code" : 0,
  "Ansi 13 Color" : {
    "Green Component" : 0.3490196168422699,
    "Red Component" : 0.7254902124404907,
    "Blue Component" : 0.8470588326454163
  },
  "Hide After Opening" : false,
  "Custom Command" : "No",
  "ASCII Anti Aliased" : true,
  "Non Ascii Font" : "Monaco 12",
  "Vertical Spacing" : 1,
  "Use Bold Font" : true,
  "Option Key Sends" : 0,
  "Selected Text Color" : {
    "Green Component" : 0.6352941393852234,
    "Red Component" : 0.6078431606292725,
    "Blue Component" : 0.6980392336845398
  },
  "Background Color" : {
    "Green Component" : 0.1294117718935013,
    "Red Component" : 0.1176470592617989,
    "Blue Component" : 0.1529411822557449
  },
  "Character Encoding" : 4,
  "Ansi 11 Color" : {
    "Green Component" : 0.5372549295425415,
    "Red Component" : 0.7803921699523926,
    "Blue Component" : 0.3098039329051971
  },
  "Use Italic Font" : true,
  "Unlimited Scrollback" : true,
  "Keyboard Map" : {
    "0xf700-0x260000" : {
      "Text" : "[1;6A",
      "Action" : 10
    },
    "0x37-0x40000" : {
      "Text" : "0x1f",
      "Action" : 11
    },
    "0x32-0x40000" : {
      "Text" : "0x00",
      "Action" : 11
    },
    "0xf709-0x20000" : {
      "Text" : "[17;2~",
      "Action" : 10
    },
    "0xf70c-0x20000" : {
      "Text" : "[20;2~",
      "Action" : 10
    },
    "0xf729-0x20000" : {
      "Text" : "[1;2H",
      "Action" : 10
    },
    "0xf72b-0x40000" : {
      "Text" : "[1;5F",
      "Action" : 10
    },
    "0xf705-0x20000" : {
      "Text" : "[1;2Q",
      "Action" : 10
    },
    "0xf703-0x260000" : {
      "Text" : "[1;6C",
      "Action" : 10
    },
    "0xf700-0x220000" : {
      "Text" : "[1;2A",
      "Action" : 10
    },
    "0xf701-0x280000" : {
      "Text" : "0x1b 0x1b 0x5b 0x42",
      "Action" : 11
    },
    "0x38-0x40000" : {
      "Text" : "0x7f",
      "Action" : 11
    },
    "0x33-0x40000" : {
      "Text" : "0x1b",
      "Action" : 11
    },
    "0xf703-0x220000" : {
      "Text" : "[1;2C",
      "Action" : 10
    },
    "0xf701-0x240000" : {
      "Text" : "[1;5B",
      "Action" : 10
    },
    "0xf70d-0x20000" : {
      "Text" : "[21;2~",
      "Action" : 10
    },
    "0xf702-0x260000" : {
      "Text" : "[1;6D",
      "Action" : 10
    },
    "0xf729-0x40000" : {
      "Text" : "[1;5H",
      "Action" : 10
    },
    "0xf706-0x20000" : {
      "Text" : "[1;2R",
      "Action" : 10
    },
    "0x34-0x40000" : {
      "Text" : "0x1c",
      "Action" : 11
    },
    "0xf700-0x280000" : {
      "Text" : "0x1b 0x1b 0x5b 0x41",
      "Action" : 11
    },
    "0x2d-0x40000" : {
      "Text" : "0x1f",
      "Action" : 11
    },
    "0xf70e-0x20000" : {
      "Text" : "[23;2~",
      "Action" : 10
    },
    "0xf702-0x220000" : {
      "Text" : "[1;2D",
      "Action" : 10
    },
    "0xf703-0x280000" : {
      "Text" : "0x1b 0x1b 0x5b 0x43",
      "Action" : 11
    },
    "0xf700-0x240000" : {
      "Text" : "[1;5A",
      "Action" : 10
    },
    "0xf707-0x20000" : {
      "Text" : "[1;2S",
      "Action" : 10
    },
    "0xf70a-0x20000" : {
      "Text" : "[18;2~",
      "Action" : 10
    },
    "0x35-0x40000" : {
      "Text" : "0x1d",
      "Action" : 11
    },
    "0xf70f-0x20000" : {
      "Text" : "[24;2~",
      "Action" : 10
    },
    "0xf703-0x240000" : {
      "Text" : "[1;5C",
      "Action" : 10
    },
    "0xf701-0x260000" : {
      "Text" : "[1;6B",
      "Action" : 10
    },
    "0xf702-0x280000" : {
      "Text" : "0x1b 0x1b 0x5b 0x44",
      "Action" : 11
    },
    "0xf72b-0x20000" : {
      "Text" : "[1;2F",
      "Action" : 10
    },
    "0x36-0x40000" : {
      "Text" : "0x1e",
      "Action" : 11
    },
    "0xf708-0x20000" : {
      "Text" : "[15;2~",
      "Action" : 10
    },
    "0xf701-0x220000" : {
      "Text" : "[1;2B",
      "Action" : 10
    },
    "0xf70b-0x20000" : {
      "Text" : "[19;2~",
      "Action" : 10
    },
    "0xf702-0x240000" : {
      "Text" : "[1;5D",
      "Action" : 10
    },
    "0xf704-0x20000" : {
      "Text" : "[1;2P",
      "Action" : 10
    }
  },
  "Window Type" : 2,
  "Blur Radius" : 5.3421875,
  "Background Image Location" : "",
  "Blur" : true,
  "Badge Color" : {
    "Red Component" : 1,
    "Color Space" : "Calibrated",
    "Blue Component" : 0,
    "Alpha Component" : 0.5,
    "Green Component" : 0
  },
  "Scrollback Lines" : 1000,
  "Send Code When Idle" : false,
  "Close Sessions On End" : true,
  "Terminal Type" : "xterm-256color",
  "Visual Bell" : true,
  "Flashing Bell" : false,
  "Silence Bell" : false,
  "Ansi 14 Color" : {
    "Green Component" : 0.658823549747467,
    "Red Component" : 0.2666666805744171,
    "Blue Component" : 0.7137255072593689
  },
  "Name" : "Guakemole",
  "Cursor Text Color" : {
    "Green Component" : 1,
    "Red Component" : 1,
    "Blue Component" : 1
  },
  "Shortcut" : "",
  "Cursor Color" : {
    "Green Component" : 0.4313725531101227,
    "Red Component" : 0.2470588237047195,
    "Blue Component" : 1
  },
  "Transparency" : 0.1435651006783254,
  "Guid" : "6246B204-BBD1-446C-9D4B-302527053DAB",
  "Ansi 2 Color" : {
    "Green Component" : 0.7333333492279053,
    "Red Component" : 0.5254902243614197,
    "Blue Component" : 0.3843137323856354
  },
  "Custom Directory" : "No",
  "Ansi 4 Color" : {
    "Green Component" : 0.6117647290229797,
    "Red Component" : 0.3019607961177826,
    "Blue Component" : 0.9333333373069763
  },
  "Scrollback With Status Bar" : true,
  "Ansi 0 Color" : {
    "Green Component" : 0.1294117718935013,
    "Red Component" : 0.1176470592617989,
    "Blue Component" : 0.1529411822557449
  },
  "Ansi 1 Color" : {
    "Green Component" : 0.3254902064800262,
    "Red Component" : 0.8509804010391235,
    "Blue Component" : 0.3764705955982208
  },
  "Normal Font" : "FiraCode-Retina 13",
  "Horizontal Spacing" : 1,
  "Ansi 3 Color" : {
    "Green Component" : 0.5372549295425415,
    "Red Component" : 0.7803921699523926,
    "Blue Component" : 0.3098039329051971
  },
  "Link Color" : {
    "Red Component" : 0.023,
    "Color Space" : "Calibrated",
    "Blue Component" : 0.678,
    "Alpha Component" : 1,
    "Green Component" : 0.27
  }
}
